…
yrbss %>% mutate(race = factor(race))

## # A tibble: 13,583 × 13
##      age gender grade hispanic race    height weight helmet_12m text_while_driv…
##    <int> <chr>  <chr> <chr>    <fct>    <dbl>  <dbl> <chr>      <chr>           
##  1    14 female 9     not      Black …  NA      NA   never      0               
##  2    14 female 9     not      Black …  NA      NA   never      <NA>            
##  3    15 female 9     hispanic Native…   1.73   84.4 never      30              
##  4    15 female 9     not      Black …   1.6    55.8 never      0               
##  5    15 female 9     not      Black …   1.5    46.7 did not r… did not drive   
##  6    15 female 9     not      Black …   1.57   67.1 did not r… did not drive   
##  7    15 female 9     not      Black …   1.65  132.  did not r… <NA>            
##  8    14 male   9     not      Black …   1.88   71.2 never      <NA>            
##  9    15 male   9     not      Black …   1.75   63.5 never      <NA>            
## 10    15 male   10    not      Black …   1.37   97.1 did not r… <NA>            
## # … with 13,573 more rows, and 4 more variables: physically_active_7d <int>,
## #   hours_tv_per_school_day <chr>, strength_training_7d <int>,
## #   school_night_hours_sleep <chr>
…
#we can get a very similar result using the bootstrap approach for confidence intervals by infer package:

boot_dist1 <- physical %>% 
   filter(physical_3plus == "yes") %>% 

  specify(response = weight) %>%
  # Generate bootstrap samples
  generate(reps = 1000, type = "bootstrap") %>%
  # Calculate mean of each bootstrap sample
  calculate(stat = "mean")

boot_dist1

## Response: weight (numeric)
## # A tibble: 1,000 × 2
##    replicate  stat
##        <int> <dbl>
##  1         1  68.2
##  2         2  68.3
##  3         3  68.4
##  4         4  68.4
##  5         5  68.8
##  6         6  68.0
##  7         7  68.5
##  8         8  68.4
##  9         9  68.6
## 10        10  68.6
## # … with 990 more rows
…
